{ "_id" : "name0", "value" : 1100 }
{ "_id" : "name1", "value" : 920 }
{ "_id" : "name2", "value" : 940 }
{ "_id" : "name3", "value" : 960 }
{ "_id" : "name4", "value" : 980 }
{ "_id" : "name5", "value" : 1000 }
{ "_id" : "name6", "value" : 1020 }
{ "_id" : "name7", "value" : 1040 }
{ "_id" : "name8", "value" : 1060 }
{ "_id" : "name9", "value" : 1080 }

